{
  "finishing_test": {
    "precision": 0.0,
    "recall": 0.0,
    "f1-score": 0.0,
    "support": 6,
    "confused_with": {
      "deny": 2,
      "ask_session_extension": 2,
      "affirm": 1
    }
  },
  "affirm": {
    "precision": 0.5882352941176471,
    "recall": 0.5,
    "f1-score": 0.5405405405405405,
    "support": 20,
    "confused_with": {
      "mood_great": 4,
      "goodbye": 3
    }
  },
  "ask_status": {
    "precision": 0.0,
    "recall": 0.0,
    "f1-score": 0.0,
    "support": 2,
    "confused_with": {
      "check_request": 1,
      "check_all_techs": 1
    }
  },
  "mood_unhappy": {
    "precision": 0.5,
    "recall": 0.7037037037037037,
    "f1-score": 0.5846153846153846,
    "support": 27,
    "confused_with": {
      "goodbye": 5,
      "mood_great": 2
    }
  },
  "inform": {
    "precision": 0.5,
    "recall": 0.5,
    "f1-score": 0.5,
    "support": 4,
    "confused_with": {
      "inform_throughput": 1,
      "inform_site": 1
    }
  },
  "inform_site": {
    "precision": 0.75,
    "recall": 0.9375,
    "f1-score": 0.8333333333333334,
    "support": 16,
    "confused_with": {
      "deny": 1
    }
  },
  "ask_session_extension": {
    "precision": 0.8235294117647058,
    "recall": 0.875,
    "f1-score": 0.8484848484848485,
    "support": 16,
    "confused_with": {
      "inform_throughput": 1,
      "inform_site": 1
    }
  },
  "deny": {
    "precision": 0.5,
    "recall": 0.35294117647058826,
    "f1-score": 0.41379310344827586,
    "support": 17,
    "confused_with": {
      "mood_unhappy": 8,
      "inform_site": 1
    }
  },
  "goodbye": {
    "precision": 0.5,
    "recall": 0.6363636363636364,
    "f1-score": 0.56,
    "support": 22,
    "confused_with": {
      "greet": 3,
      "mood_unhappy": 2
    }
  },
  "check_all_techs": {
    "precision": 0.6153846153846154,
    "recall": 1.0,
    "f1-score": 0.761904761904762,
    "support": 8,
    "confused_with": {}
  },
  "ask_pci": {
    "precision": 1.0,
    "recall": 0.8,
    "f1-score": 0.888888888888889,
    "support": 5,
    "confused_with": {
      "ask_restart": 1
    }
  },
  "ask_unlock": {
    "precision": 0.7,
    "recall": 0.7777777777777778,
    "f1-score": 0.7368421052631577,
    "support": 9,
    "confused_with": {
      "ask_lock": 2
    }
  },
  "ask_lock": {
    "precision": 0.8333333333333334,
    "recall": 0.9375,
    "f1-score": 0.8823529411764706,
    "support": 16,
    "confused_with": {
      "ask_unlock": 1
    }
  },
  "ask_Rollback": {
    "precision": 1.0,
    "recall": 1.0,
    "f1-score": 1.0,
    "support": 9,
    "confused_with": {}
  },
  "inform_throughput": {
    "precision": 0.75,
    "recall": 0.8076923076923077,
    "f1-score": 0.7777777777777779,
    "support": 26,
    "confused_with": {
      "affirm": 2,
      "goodbye": 2
    }
  },
  "inform_throughput_good": {
    "precision": 0.8,
    "recall": 0.8888888888888888,
    "f1-score": 0.8421052631578948,
    "support": 9,
    "confused_with": {
      "check_request": 1
    }
  },
  "mood_great": {
    "precision": 0.4,
    "recall": 0.3076923076923077,
    "f1-score": 0.34782608695652173,
    "support": 26,
    "confused_with": {
      "mood_unhappy": 8,
      "greet": 4
    }
  },
  "check_request": {
    "precision": 0.25,
    "recall": 0.16666666666666666,
    "f1-score": 0.2,
    "support": 6,
    "confused_with": {
      "inform_throughput": 2,
      "ask_unlock": 1,
      "deny": 1
    }
  },
  "ask_help": {
    "precision": 0.5,
    "recall": 0.09090909090909091,
    "f1-score": 0.15384615384615385,
    "support": 11,
    "confused_with": {
      "affirm": 2,
      "mood_great": 2,
      "ask_unlock": 1
    }
  },
  "greet": {
    "precision": 0.6896551724137931,
    "recall": 0.7692307692307693,
    "f1-score": 0.7272727272727274,
    "support": 26,
    "confused_with": {
      "goodbye": 3,
      "mood_great": 3
    }
  },
  "Connection": {
    "precision": 0.75,
    "recall": 0.8571428571428571,
    "f1-score": 0.7999999999999999,
    "support": 7,
    "confused_with": {
      "bot_challenge": 1
    }
  },
  "bot_challenge": {
    "precision": 0.8,
    "recall": 1.0,
    "f1-score": 0.888888888888889,
    "support": 8,
    "confused_with": {}
  },
  "ask_restart": {
    "precision": 0.8333333333333334,
    "recall": 0.8333333333333334,
    "f1-score": 0.8333333333333334,
    "support": 6,
    "confused_with": {
      "check_all_techs": 1
    }
  },
  "ask_csrf": {
    "precision": 0.0,
    "recall": 0.0,
    "f1-score": 0.0,
    "support": 5,
    "confused_with": {
      "check_all_techs": 2,
      "ask_Optimisation": 1,
      "inform_site": 1
    }
  },
  "ask_Optimisation": {
    "precision": 0.0,
    "recall": 0.0,
    "f1-score": 0.0,
    "support": 2,
    "confused_with": {
      "inform_throughput_good": 1,
      "inform_throughput": 1
    }
  },
  "ask_Ret": {
    "precision": 1.0,
    "recall": 1.0,
    "f1-score": 1.0,
    "support": 11,
    "confused_with": {}
  },
  "accuracy": 0.6625,
  "macro avg": {
    "precision": 0.5801335061672087,
    "recall": 0.6054747121489203,
    "f1-score": 0.5816079284188062,
    "support": 320
  },
  "weighted avg": {
    "precision": 0.6255581912804911,
    "recall": 0.6625,
    "f1-score": 0.6328283311657339,
    "support": 320
  },
  "micro avg": {
    "precision": 0.6625,
    "recall": 0.6625,
    "f1-score": 0.6625,
    "support": 320
  }
}