{
  "Tech4g": {
    "precision": 0.9444444444444444,
    "recall": 1.0,
    "f1-score": 0.9714285714285714,
    "support": 17,
    "confused_with": {}
  },
  "band": {
    "precision": 0.0,
    "recall": 0.0,
    "f1-score": 0.0,
    "support": 1,
    "confused_with": {
      "throughput": 1
    }
  },
  "Tech3g": {
    "precision": 1.0,
    "recall": 0.75,
    "f1-score": 0.8571428571428571,
    "support": 12,
    "confused_with": {}
  },
  "throughput.throughput_dyn": {
    "precision": 0.0,
    "recall": 0.0,
    "f1-score": 0.0,
    "support": 3,
    "confused_with": {
      "time": 1,
      "throughput.throughput_DL": 1
    }
  },
  "Person": {
    "precision": 0.0,
    "recall": 0.0,
    "f1-score": 0.0,
    "support": 5,
    "confused_with": {}
  },
  "throughput.throughput_DL": {
    "precision": 0.6,
    "recall": 0.21428571428571427,
    "f1-score": 0.3157894736842105,
    "support": 14,
    "confused_with": {
      "time": 1
    }
  },
  "Tech2g": {
    "precision": 0.9,
    "recall": 0.6428571428571429,
    "f1-score": 0.75,
    "support": 14,
    "confused_with": {}
  },
  "conditions": {
    "precision": 1.0,
    "recall": 0.8333333333333334,
    "f1-score": 0.9090909090909091,
    "support": 6,
    "confused_with": {}
  },
  "sector": {
    "precision": 0.0,
    "recall": 0.0,
    "f1-score": 0.0,
    "support": 1,
    "confused_with": {
      "Sector": 1
    }
  },
  "cell_id": {
    "precision": 0.0,
    "recall": 0.0,
    "f1-score": 0.0,
    "support": 1,
    "confused_with": {
      "code_site": 1
    }
  },
  "Sector": {
    "precision": 0.8928571428571429,
    "recall": 0.8333333333333334,
    "f1-score": 0.8620689655172413,
    "support": 30,
    "confused_with": {
      "sector": 1
    }
  },
  "throughput": {
    "precision": 0.25,
    "recall": 0.3333333333333333,
    "f1-score": 0.28571428571428575,
    "support": 6,
    "confused_with": {
      "throughput.throughput_ca": 3
    }
  },
  "code_site": {
    "precision": 0.96,
    "recall": 0.96,
    "f1-score": 0.96,
    "support": 25,
    "confused_with": {}
  },
  "time": {
    "precision": 0.0,
    "recall": 0.0,
    "f1-score": 0.0,
    "support": 4,
    "confused_with": {
      "throughput.throughput_DL": 1
    }
  },
  "throughput.throughput_ca": {
    "precision": 0.0,
    "recall": 0.0,
    "f1-score": 0.0,
    "support": 10,
    "confused_with": {
      "throughput": 5
    }
  },
  "throughput.throughput_UL": {
    "precision": 0.0,
    "recall": 0.0,
    "f1-score": 0.0,
    "support": 3,
    "confused_with": {}
  },
  "micro avg": {
    "precision": 0.7899159663865546,
    "recall": 0.618421052631579,
    "f1-score": 0.6937269372693726,
    "support": 152
  },
  "macro avg": {
    "precision": 0.4092063492063492,
    "recall": 0.3479464285714286,
    "f1-score": 0.3694521914111297,
    "support": 152
  },
  "weighted avg": {
    "precision": 0.7061925647451964,
    "recall": 0.618421052631579,
    "f1-score": 0.6496838997758377,
    "support": 152
  },
  "accuracy": 0.9518518518518518
}